Final Project
…
## # A tibble: 48,204 x 20
##    holiday  temp rain_1h snow_1h clouds_all weather_main weather_description
##    <chr>   <dbl>   <dbl>   <dbl>      <dbl> <chr>        <chr>              
##  1 None     288.       0       0         40 Clouds       scattered clouds   
##  2 None     289.       0       0         75 Clouds       broken clouds      
##  3 None     290.       0       0         90 Clouds       overcast clouds    
##  4 None     290.       0       0         90 Clouds       overcast clouds    
##  5 None     291.       0       0         75 Clouds       broken clouds      
##  6 None     292.       0       0          1 Clear        sky is clear       
##  7 None     293.       0       0          1 Clear        sky is clear       
##  8 None     294.       0       0          1 Clear        sky is clear       
##  9 None     294.       0       0         20 Clouds       few clouds         
## 10 None     293.       0       0         20 Clouds       few clouds         
## # ... with 48,194 more rows, and 13 more variables: date_time <dttm>,
## #   traffic_volume <dbl>, traffic_level <dbl>, holiday_categorical <dbl>,
## #   month <chr>, day <chr>, hour <chr>, year <chr>, temp_fahrenheit <dbl>,
## #   norm_rain_1h <dbl>, norm_fahrenheit <dbl>, norm_snow_1h <dbl>,
## #   norm_clouds_all <dbl>
…
## # A tibble: 48,204 x 20
##    holiday  temp rain_1h snow_1h clouds_all weather_main weather_description
##    <chr>   <dbl>   <dbl>   <dbl>      <dbl> <chr>        <chr>              
##  1 None     288.       0       0         40 Clouds       scattered clouds   
##  2 None     289.       0       0         75 Clouds       broken clouds      
##  3 None     290.       0       0         90 Clouds       overcast clouds    
##  4 None     290.       0       0         90 Clouds       overcast clouds    
##  5 None     291.       0       0         75 Clouds       broken clouds      
##  6 None     292.       0       0          1 Clear        sky is clear       
##  7 None     293.       0       0          1 Clear        sky is clear       
##  8 None     294.       0       0          1 Clear        sky is clear       
##  9 None     294.       0       0         20 Clouds       few clouds         
## 10 None     293.       0       0         20 Clouds       few clouds         
## # ... with 48,194 more rows, and 13 more variables: date_time <dttm>,
## #   traffic_volume <dbl>, traffic_level <dbl>, holiday_categorical <dbl>,
## #   month <chr>, day <chr>, hour <chr>, year <chr>, temp_fahrenheit <dbl>,
## #   norm_rain_1h <dbl>, norm_fahrenheit <dbl>, norm_snow_1h <dbl>,
## #   norm_clouds_all <dbl>
…
## # A tibble: 48,204 x 20
##    holiday  temp rain_1h snow_1h clouds_all weather_main weather_description
##    <chr>   <dbl>   <dbl>   <dbl>      <dbl> <chr>        <chr>              
##  1 None     288.       0       0         40 Clouds       scattered clouds   
##  2 None     289.       0       0         75 Clouds       broken clouds      
##  3 None     290.       0       0         90 Clouds       overcast clouds    
##  4 None     290.       0       0         90 Clouds       overcast clouds    
##  5 None     291.       0       0         75 Clouds       broken clouds      
##  6 None     292.       0       0          1 Clear        sky is clear       
##  7 None     293.       0       0          1 Clear        sky is clear       
##  8 None     294.       0       0          1 Clear        sky is clear       
##  9 None     294.       0       0         20 Clouds       few clouds         
## 10 None     293.       0       0         20 Clouds       few clouds         
## # ... with 48,194 more rows, and 13 more variables: date_time <dttm>,
## #   traffic_volume <dbl>, traffic_level <dbl>, holiday_categorical <dbl>,
## #   month <chr>, day <chr>, hour <chr>, year <chr>, temp_fahrenheit <dbl>,
## #   norm_rain_1h <dbl>, norm_fahrenheit <dbl>, norm_snow_1h <dbl>,
## #   norm_clouds_all <dbl>
…
GLM
0.908
0.88
0.944
0.911
0.9081

Inferential Comparison

## # A tibble: 48,204 x 20
##    holiday  temp rain_1h snow_1h clouds_all weather_main weather_description
##    <chr>   <dbl>   <dbl>   <dbl>      <dbl> <chr>        <chr>              
##  1 None     288.       0       0         40 Clouds       scattered clouds   
##  2 None     289.       0       0         75 Clouds       broken clouds      
##  3 None     290.       0       0         90 Clouds       overcast clouds    
##  4 None     290.       0       0         90 Clouds       overcast clouds    
##  5 None     291.       0       0         75 Clouds       broken clouds      
##  6 None     292.       0       0          1 Clear        sky is clear       
##  7 None     293.       0       0          1 Clear        sky is clear       
##  8 None     294.       0       0          1 Clear        sky is clear       
##  9 None     294.       0       0         20 Clouds       few clouds         
## 10 None     293.       0       0         20 Clouds       few clouds         
## # ... with 48,194 more rows, and 13 more variables: date_time <dttm>,
## #   traffic_volume <dbl>, traffic_level <dbl>, holiday_categorical <dbl>,
## #   month <chr>, day <chr>, hour <chr>, year <chr>, temp_fahrenheit <dbl>,
## #   norm_rain_1h <dbl>, norm_fahrenheit <dbl>, norm_snow_1h <dbl>,
## #   norm_clouds_all <dbl>
…
## # A tibble: 14,462 x 22
##    holiday  temp rain_1h snow_1h clouds_all weather_main weather_description
##    <chr>   <dbl>   <dbl>   <dbl>      <dbl> <chr>        <chr>              
##  1 None     288.       0       0         40 Clouds       scattered clouds   
##  2 None     291.       0       0         75 Clouds       broken clouds      
##  3 None     293.       0       0          1 Clear        sky is clear       
##  4 None     294.       0       0          1 Clear        sky is clear       
##  5 None     291.       0       0         20 Clouds       few clouds         
##  6 None     289.       0       0          1 Clear        sky is clear       
##  7 None     287.       0       0          1 Clear        sky is clear       
##  8 None     285.       0       0          1 Clear        sky is clear       
##  9 None     281.       0       0          1 Clear        sky is clear       
## 10 None     292.       0       0          1 Clear        sky is clear       
## # ... with 14,452 more rows, and 15 more variables: date_time <dttm>,
## #   traffic_volume <dbl>, traffic_level <dbl>, holiday_categorical <dbl>,
## #   month <chr>, day <chr>, hour <chr>, year <chr>, temp_fahrenheit <dbl>,
## #   norm_rain_1h <dbl>, norm_fahrenheit <dbl>, norm_snow_1h <dbl>,
## #   norm_clouds_all <dbl>, Prediction <dbl>, PredictionCategorical <dbl>
…
